Partidos y despenalización
…
LEVANTO DATOS

gs4_deauth()
base <- read_sheet("https://docs.google.com/spreadsheets/d/1TUTag7Majqhn5noRLLMUJ6SFJ0Phwlo-Oc1T59uSZCE/edit#gid=0", skip = 1)

## Reading from "Nuevo Congreso 2020 - AbortoLegal"

## Range "2:5000000"

janitor::clean_names(base)

## # A tibble: 339 x 26
##    partido periodo distrito inicia_mandato      finaliza_mandato    bloque cargo
##    <chr>   <chr>   <chr>    <dttm>              <dttm>              <chr>  <chr>
##  1 otros   ya est… Santiag… 2017-12-10 00:00:00 2021-12-09 00:00:00 FRENT… Dipu…
##  2 Frente… entró … La Rioja 2019-12-10 00:00:00 2023-12-09 00:00:00 FRENT… Dipu…
##  3 cambie… ya est… Buenos … 2017-12-10 00:00:00 2021-12-09 00:00:00 PRO    Dipu…
##  4 Frente… entró … Buenos … 2019-12-19 00:00:00 2023-12-09 00:00:00 FRENT… Dipu…
##  5 pj      ya est… San Juan 2017-12-10 00:00:00 2021-12-09 00:00:00 FRENT… Dipu…
##  6 otros   ya est… San Luis 2017-12-10 00:00:00 2021-12-09 00:00:00 FRENT… Dipu…
##  7 Frente… entró … Buenos … 2019-12-10 00:00:00 2023-12-09 00:00:00 FRENT… Dipu…
##  8 Juntos… entró … La Rioja 2019-12-10 00:00:00 2023-12-09 00:00:00 Acció… Dipu…
##  9 Juntos… entró … Tucumán  2019-12-10 00:00:00 2023-12-09 00:00:00 PRO    Dipu…
## 10 Juntos… entró … Santa Fe 2019-12-10 00:00:00 2023-12-09 00:00:00 PRO    Dipu…
## # … with 329 more rows, and 19 more variables: posicion_lista <dbl>,
## #   nombre <chr>, genero <chr>, aborto_legal <chr>, fuente_aborto_legal <chr>,
## #   observaciones <chr>, twitter <chr>, cantidad_followers <dbl>,
## #   cantidad_friends <dbl>, anio_creacion <list>, fecha_ultimo_tweet <chr>,
## #   activa_ultimos_90dias <lgl>, facebook <chr>, aporte <chr>, jura <chr>,
## #   edad <dbl>, fecha_nacimiento <dttm>, estado_civil <chr>, religion <chr>
…
